<?xml version="1.0" encoding="UTF-8"?>
<!DOCTYPE svg PUBLIC "-//W3C//DTD SVG 1.1//EN" "http://www.w3.org/Graphics/SVG/1.1/DTD/svg11.dtd">
<!-- Creator: CorelDRAW 2020 (64-Bit) -->
<svg xmlns="http://www.w3.org/2000/svg" xml:space="preserve" width="2362px" height="2362px" version="1.1" style="shape-rendering:geometricPrecision; text-rendering:geometricPrecision; image-rendering:optimizeQuality; fill-rule:evenodd; clip-rule:evenodd"
viewBox="0 0 2362 2362"
 xmlns:xlink="http://www.w3.org/1999/xlink"
 xmlns:xodm="http://www.corel.com/coreldraw/odm/2003">
 <defs>
  <style type="text/css">
   <![CDATA[
    .str0 {stroke:#3E4095;stroke-width:118.1;stroke-miterlimit:22.9256}
    .fil0 {fill:none}
   ]]>
  </style>
 </defs>
 <g id="Capa_x0020_1">
  <metadata id="CorelCorpID_0Corel-Layer"/>
  <g id="_1691358290512">
   <rect class="fil0 str0" x="211.44" y="928.79" width="537.45" height="499.96"/>
   <line class="fil0 str0" x1="480.16" y1="928.8" x2="480.16" y2= "1428.75" />
   <line class="fil0 str0" x1="211.44" y1="1178.77" x2="748.89" y2= "1178.77" />
   <rect class="fil0 str0" x="1611.31" y="935.04" width="537.45" height="499.96"/>
   <line class="fil0 str0" x1="1880.04" y1="935.04" x2="1880.04" y2= "1435" />
   <line class="fil0 str0" x1="1611.32" y1="1185.02" x2="2148.77" y2= "1185.02" />
   <line class="fil0 str0" x1="748.89" y1="1178.77" x2="1611.32" y2= "1185.02" />
  </g>
 </g>
</svg>
