<?xml version="1.0" encoding="UTF-8"?>
<!DOCTYPE svg PUBLIC "-//W3C//DTD SVG 1.1//EN" "http://www.w3.org/Graphics/SVG/1.1/DTD/svg11.dtd">
<!-- Creator: CorelDRAW 2020 (64-Bit) -->
<svg xmlns="http://www.w3.org/2000/svg" xml:space="preserve" width="2362px" height="2362px" version="1.1" style="shape-rendering:geometricPrecision; text-rendering:geometricPrecision; image-rendering:optimizeQuality; fill-rule:evenodd; clip-rule:evenodd"
viewBox="0 0 2362 2362"
 xmlns:xlink="http://www.w3.org/1999/xlink"
 xmlns:xodm="http://www.corel.com/coreldraw/odm/2003">
 <defs>
  <font id="FontID0" horiz-adv-x="722" font-variant="normal" style="fill-rule:nonzero" font-weight="700">
	<font-face 
		font-family="Arial">
		<font-face-src>
			<font-face-name name="Arial Bold"/>
		</font-face-src>
	</font-face>
   <missing-glyph><path d="M0 0z"/></missing-glyph>
   <glyph unicode="1" horiz-adv-x="556" d="M393.001 0l-137.001 0 0 518.335c-50.0004,-47.0013 -109.001,-81.8335 -177.001,-104.335l0 125c35.8356,11.6674 74.6675,33.8344 116.501,66.6681 42.001,32.6665 70.6678,70.8322 86.3349,114.333l111.166 0 0 -720.001z"/>
   <glyph unicode="8" horiz-adv-x="556" d="M160.333 387.168c-35.3339,15.001 -61.1661,35.5011 -77.1677,61.8322 -16.166,26.1666 -24.1654,55.0007 -24.1654,86.1677 0,53.5012 18.6662,97.6678 55.8341,132.5 37.1651,34.835 90.1645,52.3333 158.667,52.3333 68.0004,0 120.665,-17.4983 158.168,-52.3333 37.4996,-34.8322 56.333,-78.9988 56.333,-132.5 0,-33.1654 -8.66836,-62.6656 -26.0022,-88.6678 -17.1666,-25.8322 -41.4993,-45.6662 -72.8335,-59.332 39.8353,-16.0016 70.0017,-39.3336 90.8335,-70.0017 20.6674,-30.8325 31.0026,-66.1664 31.0026,-106.333 0,-66.3336 -21.0019,-120.166 -63.1673,-161.666 -42.001,-41.4993 -97.9995,-62.1667 -168.001,-62.1667 -65.0013,0 -119.001,17.1666 -162.335,51.4999 -50.9982,40.3342 -76.4987,96.0011 -76.4987,166.499 0,38.8347 9.66615,74.5003 28.8341,107.002 19.1651,32.4993 49.3314,57.498 90.499,75.1664zm28.6668 137.999c0,-27.3317 7.66773,-48.8325 23.0003,-64.1651 15.4999,-15.3355 36,-23.0003 61.5006,-23.0003 25.9994,0 46.6668,7.83214 62.1667,23.332 15.4999,15.4999 23.332,37.0007 23.332,64.3352 0,25.8322 -7.66489,46.4996 -23.0003,61.9995 -15.4999,15.4999 -35.8328,23.332 -60.9988,23.332 -26.3339,0 -47.1657,-7.83214 -62.6656,-23.4992 -15.5027,-15.6671 -23.3348,-36.4989 -23.3348,-62.3339zm-12.9997 -307.001c0,-38.1657 9.66615,-67.8332 28.9985,-89.1667 19.3351,-21.3336 43.3361,-32.0004 72.1673,-32.0004 28.3352,0 51.6672,10.3351 70.1689,30.8353 18.4989,20.5002 27.6662,50.1648 27.6662,88.8322 0,33.8344 -9.3345,61.0017 -28.1679,81.5018 -18.8334,20.5002 -42.6671,30.8325 -71.4984,30.8325 -33.5027,0 -58.3343,-11.6674 -74.8347,-34.9994 -16.3333,-23.3348 -24.4999,-48.5009 -24.4999,-75.8354z"/>
  </font>
  <style type="text/css">
   <![CDATA[
    @font-face { font-family:"Arial";font-variant:normal;font-weight:bold;src:url("#FontID0") format(svg)}
    .str0 {stroke:#3E4095;stroke-width:118.1;stroke-miterlimit:22.9256}
    .fil0 {fill:#FEFEFE}
    .fil1 {fill:#373435}
    .fnt0 {font-weight:bold;font-size:416.63px;font-family:'Arial'}
   ]]>
  </style>
 </defs>
 <g id="Capa_x0020_1">
  <metadata id="CorelCorpID_0Corel-Layer"/>
  <polygon class="fil0 str0" points="2056.16,1940.59 1180.1,423.21 304.04,1940.59 "/>
  <text x="946.24" y="1547.25"  class="fil1 fnt0">18</text>
 </g>
</svg>
